{
  "articles": [
    {
      "title": "Fake Title",
      "content": "fve",
      "authors": "rg",
      "id": 1
    },
    {
      "title": "Coucou ta race",
      "content": "eg",
      "authors": "rg",
      "id": 2
    }
  ]
}